[
  {"task": "Clean apartment", "done": false},
  {"task": "Feed mogwai", "done": false},
  {"task": "Finish Web Apps Homework", "done": true},
  {"task": "Caffeinate self", "done": true},
  {"task": "Hit the gym", "done": false}
]
